{"places":[{"id":77,"name":"Milczarek-Romanowski","place":"Przysucha","district":"Opolskie","starts":2,"description":"Assumenda eum necessitatibus facilis perferendis quidem asperiores eius.","wifi":false,"tv":true,"food":true,"paypas":true,"swimming":false,"airport":true,"parking":true,"price":37,"oldprice":94,"score":2.7,"opinion_count":60,"latitude":"0.817108275444","longitude":"-11.343431413012","created_at":"2015-08-31T12:59:46.000+02:00","updated_at":"2015-08-31T12:59:46.000+02:00","image":"http://lorempixel.com/440/320/city/","gallery":["http://lorempixel.com/440/320/city/","http://lorempixel.com/440/320/city/","http://lorempixel.com/440/320/city/"]},{"id":80,"name":"Jankowiak Group","place":"Rabka-Zdrój","district":"Dolnośląskie","starts":1,"description":"Omnis laudantium atque earum neque.","wifi":false,"tv":true,"food":false,"paypas":false,"swimming":false,"airport":false,"parking":true,"price":26,"oldprice":46,"score":3.9,"opinion_count":111,"latitude":"-8.554737777488","longitude":"145.900865496838","created_at":"2015-08-31T12:59:46.000+02:00","updated_at":"2015-08-31T12:59:46.000+02:00","image":"http://lorempixel.com/440/320/city/","gallery":["http://lorempixel.com/440/320/city/","http://lorempixel.com/440/320/city/","http://lorempixel.com/440/320/city/"]},{"id":83,"name":"Koza and Sons","place":"Andrychów","district":"Lubelskie","starts":3,"description":"Accusamus sint rerum facere.","wifi":true,"tv":false,"food":false,"paypas":true,"swimming":true,"airport":true,"parking":true,"price":65,"oldprice":50,"score":8.7,"opinion_count":109,"latitude":"-13.806786375438","longitude":"-55.495437036679","created_at":"2015-08-31T12:59:46.000+02:00","updated_at":"2015-08-31T12:59:46.000+02:00","image":"http://lorempixel.com/440/320/city/","gallery":["http://lorempixel.com/440/320/city/","http://lorempixel.com/440/320/city/","http://lorempixel.com/440/320/city/"]},{"id":86,"name":"Broda, Aleksandrowicz and Michalik","place":"Białystok","district":"Pomorskie","starts":5,"description":"Ut et error.","wifi":false,"tv":true,"food":true,"paypas":false,"swimming":false,"airport":true,"parking":true,"price":72,"oldprice":5,"score":0.9,"opinion_count":33,"latitude":"-11.960304979793","longitude":"163.936717224372","created_at":"2015-08-31T12:59:46.000+02:00","updated_at":"2015-08-31T12:59:46.000+02:00","image":"http://lorempixel.com/440/320/city/","gallery":["http://lorempixel.com/440/320/city/","http://lorempixel.com/440/320/city/","http://lorempixel.com/440/320/city/"]},{"id":89,"name":"Świątek, Kapusta and Cichoń","place":"Namysłów","district":"Pomorskie","starts":1,"description":"Dignissimos provident et fuga blanditiis.","wifi":true,"tv":true,"food":false,"paypas":false,"swimming":false,"airport":false,"parking":true,"price":23,"oldprice":22,"score":1.6,"opinion_count":131,"latitude":"-22.324930052817","longitude":"-87.593176472981","created_at":"2015-08-31T12:59:46.000+02:00","updated_at":"2015-08-31T12:59:46.000+02:00","image":"http://lorempixel.com/440/320/city/","gallery":["http://lorempixel.com/440/320/city/","http://lorempixel.com/440/320/city/","http://lorempixel.com/440/320/city/"]},{"id":92,"name":"Siwek LLC","place":"Kruszwica","district":"Lubelskie","starts":2,"description":"Qui voluptatem distinctio quia quod aut aliquam.","wifi":false,"tv":false,"food":true,"paypas":true,"swimming":false,"airport":false,"parking":true,"price":18,"oldprice":96,"score":6.7,"opinion_count":48,"latitude":"26.624869708292","longitude":"-93.795578306409","created_at":"2015-08-31T12:59:46.000+02:00","updated_at":"2015-08-31T12:59:46.000+02:00","image":"http://lorempixel.com/440/320/city/","gallery":["http://lorempixel.com/440/320/city/","http://lorempixel.com/440/320/city/","http://lorempixel.com/440/320/city/"]},{"id":95,"name":"Gołębiowski-Drozdowski","place":"Konin","district":"Lubelskie","starts":4,"description":"Consequatur et qui veniam quo distinctio omnis enim.","wifi":true,"tv":false,"food":true,"paypas":true,"swimming":false,"airport":false,"parking":true,"price":25,"oldprice":14,"score":4.5,"opinion_count":150,"latitude":"82.991221488729","longitude":"-64.443839559382","created_at":"2015-08-31T12:59:46.000+02:00","updated_at":"2015-08-31T12:59:46.000+02:00","image":"http://lorempixel.com/440/320/city/","gallery":["http://lorempixel.com/440/320/city/","http://lorempixel.com/440/320/city/","http://lorempixel.com/440/320/city/"]},{"id":98,"name":"Kaniewski-Lenart","place":"Pakość","district":"Pomorskie","starts":5,"description":"Sint dignissimos quasi quo deserunt minima aut a.","wifi":false,"tv":false,"food":false,"paypas":true,"swimming":true,"airport":false,"parking":true,"price":45,"oldprice":6,"score":1.3,"opinion_count":74,"latitude":"-66.246718873674","longitude":"14.431165447299","created_at":"2015-08-31T12:59:46.000+02:00","updated_at":"2015-08-31T12:59:46.000+02:00","image":"http://lorempixel.com/440/320/city/","gallery":["http://lorempixel.com/440/320/city/","http://lorempixel.com/440/320/city/","http://lorempixel.com/440/320/city/"]},{"id":101,"name":"Błaszczak-Ruciński","place":"Puszczykowo","district":"Podkarpackie","starts":2,"description":"Ipsa nam dignissimos doloremque occaecati atque enim vero.","wifi":false,"tv":false,"food":true,"paypas":false,"swimming":false,"airport":false,"parking":false,"price":31,"oldprice":46,"score":6.8,"opinion_count":83,"latitude":"-38.890070197524","longitude":"152.205193609796","created_at":"2015-08-31T12:59:46.000+02:00","updated_at":"2015-08-31T12:59:46.000+02:00","image":"http://lorempixel.com/440/320/city/","gallery":["http://lorempixel.com/440/320/city/","http://lorempixel.com/440/320/city/","http://lorempixel.com/440/320/city/"]},{"id":104,"name":"Grzybowski and Sons","place":"Poniec","district":"Warmińsko-mazurskie","starts":3,"description":"Natus quisquam ab.","wifi":true,"tv":false,"food":true,"paypas":true,"swimming":false,"airport":true,"parking":false,"price":43,"oldprice":74,"score":5.5,"opinion_count":52,"latitude":"66.474155515433","longitude":"-33.044147116886","created_at":"2015-08-31T12:59:46.000+02:00","updated_at":"2015-08-31T12:59:46.000+02:00","image":"http://lorempixel.com/440/320/city/","gallery":["http://lorempixel.com/440/320/city/","http://lorempixel.com/440/320/city/","http://lorempixel.com/440/320/city/"]},{"id":107,"name":"Zarzycki and Sons","place":"Sędziszów Małopolski","district":"Opolskie","starts":2,"description":"Impedit expedita architecto officia id.","wifi":true,"tv":false,"food":false,"paypas":true,"swimming":false,"airport":true,"parking":true,"price":74,"oldprice":47,"score":6.6,"opinion_count":99,"latitude":"-53.024651286168","longitude":"60.802531116125","created_at":"2015-08-31T12:59:46.000+02:00","updated_at":"2015-08-31T12:59:46.000+02:00","image":"http://lorempixel.com/440/320/city/","gallery":["http://lorempixel.com/440/320/city/","http://lorempixel.com/440/320/city/","http://lorempixel.com/440/320/city/"]},{"id":110,"name":"Zych, Rusin and Januszewski","place":"Łosice","district":"Warmińsko-mazurskie","starts":2,"description":"Odit rem voluptas autem deserunt qui occaecati.","wifi":true,"tv":true,"food":false,"paypas":true,"swimming":false,"airport":false,"parking":true,"price":55,"oldprice":30,"score":4.7,"opinion_count":69,"latitude":"12.868551944309","longitude":"-140.308170231829","created_at":"2015-08-31T12:59:46.000+02:00","updated_at":"2015-08-31T12:59:46.000+02:00","image":"http://lorempixel.com/440/320/city/","gallery":["http://lorempixel.com/440/320/city/","http://lorempixel.com/440/320/city/","http://lorempixel.com/440/320/city/"]},{"id":113,"name":"Rogala, Przybylski and Miller","place":"Bobowa","district":"Świętokrzyskie","starts":2,"description":"Est quasi officia.","wifi":true,"tv":true,"food":true,"paypas":true,"swimming":true,"airport":true,"parking":true,"price":53,"oldprice":98,"score":7.7,"opinion_count":42,"latitude":"-84.23928301394","longitude":"22.962956201454","created_at":"2015-08-31T12:59:46.000+02:00","updated_at":"2015-08-31T12:59:46.000+02:00","image":"http://lorempixel.com/440/320/city/","gallery":["http://lorempixel.com/440/320/city/","http://lorempixel.com/440/320/city/","http://lorempixel.com/440/320/city/"]},{"id":116,"name":"Strzelecki-Dębowski","place":"Skawina","district":"Lubuskie","starts":3,"description":"Id consequatur cum.","wifi":true,"tv":true,"food":true,"paypas":false,"swimming":false,"airport":true,"parking":false,"price":3,"oldprice":39,"score":0.9,"opinion_count":122,"latitude":"57.349735846355","longitude":"102.650426552757","created_at":"2015-08-31T12:59:46.000+02:00","updated_at":"2015-08-31T12:59:46.000+02:00","image":"http://lorempixel.com/440/320/city/","gallery":["http://lorempixel.com/440/320/city/","http://lorempixel.com/440/320/city/","http://lorempixel.com/440/320/city/"]},{"id":119,"name":"Król, Trzeciak and Kiełbasa","place":"Jastarnia","district":"Śląskie","starts":3,"description":"Saepe quidem culpa.","wifi":false,"tv":true,"food":false,"paypas":false,"swimming":true,"airport":false,"parking":true,"price":31,"oldprice":18,"score":7.1,"opinion_count":22,"latitude":"-78.383653118234","longitude":"-45.882019734912","created_at":"2015-08-31T12:59:46.000+02:00","updated_at":"2015-08-31T12:59:46.000+02:00","image":"http://lorempixel.com/440/320/city/","gallery":["http://lorempixel.com/440/320/city/","http://lorempixel.com/440/320/city/","http://lorempixel.com/440/320/city/"]},{"id":122,"name":"Janik and Sons","place":"Jarosław","district":"Podkarpackie","starts":5,"description":"Repudiandae accusamus adipisci quisquam facilis voluptatem aspernatur minima.","wifi":false,"tv":true,"food":false,"paypas":false,"swimming":true,"airport":true,"parking":true,"price":29,"oldprice":22,"score":3.7,"opinion_count":41,"latitude":"-86.697596460903","longitude":"-98.610059152763","created_at":"2015-08-31T12:59:46.000+02:00","updated_at":"2015-08-31T12:59:46.000+02:00","image":"http://lorempixel.com/440/320/city/","gallery":["http://lorempixel.com/440/320/city/","http://lorempixel.com/440/320/city/","http://lorempixel.com/440/320/city/"]},{"id":125,"name":"Ziętek and Sons","place":"Wodzisław Śląski","district":"Mazowieckie","starts":2,"description":"Accusantium consequatur corrupti corporis.","wifi":false,"tv":false,"food":true,"paypas":false,"swimming":true,"airport":false,"parking":false,"price":56,"oldprice":39,"score":3.2,"opinion_count":94,"latitude":"-78.066933103437","longitude":"-20.393658353409","created_at":"2015-08-31T12:59:46.000+02:00","updated_at":"2015-08-31T12:59:46.000+02:00","image":"http://lorempixel.com/440/320/city/","gallery":["http://lorempixel.com/440/320/city/","http://lorempixel.com/440/320/city/","http://lorempixel.com/440/320/city/"]},{"id":128,"name":"Czechowski and Sons","place":"Suchań","district":"Dolnośląskie","starts":4,"description":"Mollitia voluptatem non.","wifi":true,"tv":true,"food":true,"paypas":false,"swimming":true,"airport":true,"parking":false,"price":27,"oldprice":94,"score":8.6,"opinion_count":142,"latitude":"-77.704304576756","longitude":"-76.972726223737","created_at":"2015-08-31T12:59:46.000+02:00","updated_at":"2015-08-31T12:59:46.000+02:00","image":"http://lorempixel.com/440/320/city/","gallery":["http://lorempixel.com/440/320/city/","http://lorempixel.com/440/320/city/","http://lorempixel.com/440/320/city/"]},{"id":131,"name":"Górny-Król","place":"Jastrowie","district":"Kujawsko-pomorskie","starts":2,"description":"Qui distinctio aspernatur aliquid.","wifi":true,"tv":false,"food":true,"paypas":true,"swimming":false,"airport":false,"parking":true,"price":95,"oldprice":2,"score":3.7,"opinion_count":18,"latitude":"73.001448053836","longitude":"-91.690061959775","created_at":"2015-08-31T12:59:46.000+02:00","updated_at":"2015-08-31T12:59:46.000+02:00","image":"http://lorempixel.com/440/320/city/","gallery":["http://lorempixel.com/440/320/city/","http://lorempixel.com/440/320/city/","http://lorempixel.com/440/320/city/"]},{"id":134,"name":"Więcek-Cieślak","place":"Żmigród","district":"Małopolskie","starts":2,"description":"Sequi eos hic enim animi id ut.","wifi":true,"tv":true,"food":true,"paypas":false,"swimming":true,"airport":false,"parking":true,"price":17,"oldprice":77,"score":2.1,"opinion_count":146,"latitude":"63.760726218263","longitude":"178.439574120906","created_at":"2015-08-31T12:59:46.000+02:00","updated_at":"2015-08-31T12:59:46.000+02:00","image":"http://lorempixel.com/440/320/city/","gallery":["http://lorempixel.com/440/320/city/","http://lorempixel.com/440/320/city/","http://lorempixel.com/440/320/city/"]},{"id":137,"name":"Banaś, Chmielewski and Cybulski","place":"Brzozów","district":"Dolnośląskie","starts":5,"description":"Consequuntur eaque odit reiciendis hic voluptas dignissimos.","wifi":true,"tv":true,"food":false,"paypas":false,"swimming":false,"airport":false,"parking":true,"price":56,"oldprice":50,"score":3.2,"opinion_count":99,"latitude":"11.398933854406","longitude":"134.189721119944","created_at":"2015-08-31T12:59:46.000+02:00","updated_at":"2015-08-31T12:59:46.000+02:00","image":"http://lorempixel.com/440/320/city/","gallery":["http://lorempixel.com/440/320/city/","http://lorempixel.com/440/320/city/","http://lorempixel.com/440/320/city/"]},{"id":140,"name":"Furman, Bartosik and Kmiecik","place":"Szprotawa","district":"Opolskie","starts":1,"description":"Ea quos tempora dolor.","wifi":false,"tv":false,"food":false,"paypas":true,"swimming":true,"airport":true,"parking":true,"price":14,"oldprice":46,"score":6.3,"opinion_count":99,"latitude":"-67.495042738383","longitude":"-124.156308714042","created_at":"2015-08-31T12:59:46.000+02:00","updated_at":"2015-08-31T12:59:46.000+02:00","image":"http://lorempixel.com/440/320/city/","gallery":["http://lorempixel.com/440/320/city/","http://lorempixel.com/440/320/city/","http://lorempixel.com/440/320/city/"]},{"id":143,"name":"Kasprzyk LLC","place":"Kunów","district":"Podlaskie","starts":3,"description":"Nam quaerat rerum laboriosam corporis aperiam explicabo quos.","wifi":false,"tv":true,"food":false,"paypas":true,"swimming":false,"airport":false,"parking":true,"price":88,"oldprice":54,"score":0.8,"opinion_count":60,"latitude":"28.781067197889","longitude":"162.877810702196","created_at":"2015-08-31T12:59:46.000+02:00","updated_at":"2015-08-31T12:59:46.000+02:00","image":"http://lorempixel.com/440/320/city/","gallery":["http://lorempixel.com/440/320/city/","http://lorempixel.com/440/320/city/","http://lorempixel.com/440/320/city/"]},{"id":146,"name":"Królikowski LLC","place":"Skierniewice","district":"Świętokrzyskie","starts":3,"description":"Ratione fuga placeat exercitationem eligendi.","wifi":false,"tv":true,"food":true,"paypas":false,"swimming":true,"airport":false,"parking":true,"price":22,"oldprice":46,"score":4.0,"opinion_count":93,"latitude":"8.789667043434","longitude":"-12.52455965854","created_at":"2015-08-31T12:59:46.000+02:00","updated_at":"2015-08-31T12:59:46.000+02:00","image":"http://lorempixel.com/440/320/city/","gallery":["http://lorempixel.com/440/320/city/","http://lorempixel.com/440/320/city/","http://lorempixel.com/440/320/city/"]},{"id":149,"name":"Baran Inc","place":"Ogrodzieniec","district":"Wielkopolskie","starts":1,"description":"Sequi velit dolores sed.","wifi":true,"tv":true,"food":false,"paypas":false,"swimming":true,"airport":false,"parking":true,"price":7,"oldprice":36,"score":9.5,"opinion_count":42,"latitude":"-13.734135710143","longitude":"-121.998720497379","created_at":"2015-08-31T12:59:46.000+02:00","updated_at":"2015-08-31T12:59:46.000+02:00","image":"http://lorempixel.com/440/320/city/","gallery":["http://lorempixel.com/440/320/city/","http://lorempixel.com/440/320/city/","http://lorempixel.com/440/320/city/"]}],"page":2,"total_pages":4,"total_count":100}