{
  "places": [
    {
      "id": 2,
      "name": "Miśkiewicz, Bożek and Kolasa",
      "place": "Lidzbark Warmiński",
      "district": "Dolnośląskie",
      "starts": 3,
      "description": "Magni ipsum illum.",
      "wifi": true,
      "tv": true,
      "food": true,
      "paypas": false,
      "swimming": false,
      "airport": true,
      "parking": true,
      "price": 46,
      "oldprice": 33,
      "score": 7.8,
      "opinion_count": 150,
      "latitude": "-70.237896736026",
      "longitude": "179.260670847976",
      "created_at": "2015-08-31T12:59:46.000+02:00",
      "updated_at": "2015-08-31T12:59:46.000+02:00",
      "image": "http://lorempixel.com/440/320/city/",
      "gallery": [
        "http://lorempixel.com/440/320/city/",
        "http://lorempixel.com/440/320/city/",
        "http://lorempixel.com/440/320/city/"
      ]
    },
    {
      "id": 5,
      "name": "Głowacki-Kuliński",
      "place": "Kisielice",
      "district": "Kujawsko-pomorskie",
      "starts": 5,
      "description": "Delectus quis qui.",
      "wifi": false,
      "tv": false,
      "food": true,
      "paypas": true,
      "swimming": false,
      "airport": true,
      "parking": false,
      "price": 15,
      "oldprice": 34,
      "score": 5.5,
      "opinion_count": 25,
      "latitude": "57.68082678611",
      "longitude": "123.933828510606",
      "created_at": "2015-08-31T12:59:46.000+02:00",
      "updated_at": "2015-08-31T12:59:46.000+02:00",
      "image": "http://lorempixel.com/440/320/city/",
      "gallery": [
        "http://lorempixel.com/440/320/city/",
        "http://lorempixel.com/440/320/city/",
        "http://lorempixel.com/440/320/city/"
      ]
    },
    {
      "id": 8,
      "name": "Kalisz, Kasprzyk and Milczarek",
      "place": "Dolsk",
      "district": "Wielkopolskie",
      "starts": 2,
      "description": "Labore id aliquid quibusdam et ea est.",
      "wifi": false,
      "tv": true,
      "food": false,
      "paypas": true,
      "swimming": true,
      "airport": false,
      "parking": false,
      "price": 2,
      "oldprice": 16,
      "score": 6.7,
      "opinion_count": 35,
      "latitude": "82.18869108538",
      "longitude": "141.640913051158",
      "created_at": "2015-08-31T12:59:46.000+02:00",
      "updated_at": "2015-08-31T12:59:46.000+02:00",
      "image": "http://lorempixel.com/440/320/city/",
      "gallery": [
        "http://lorempixel.com/440/320/city/",
        "http://lorempixel.com/440/320/city/",
        "http://lorempixel.com/440/320/city/"
      ]
    },
    {
      "id": 11,
      "name": "Januszewski-Suski",
      "place": "Sieraków",
      "district": "Lubuskie",
      "starts": 1,
      "description": "Eum est porro suscipit architecto ea corrupti magni.",
      "wifi": false,
      "tv": true,
      "food": false,
      "paypas": true,
      "swimming": true,
      "airport": true,
      "parking": false,
      "price": 29,
      "oldprice": 92,
      "score": 1.4,
      "opinion_count": 90,
      "latitude": "-37.173360597912",
      "longitude": "-0.604909840422",
      "created_at": "2015-08-31T12:59:46.000+02:00",
      "updated_at": "2015-08-31T12:59:46.000+02:00",
      "image": "http://lorempixel.com/440/320/city/",
      "gallery": [
        "http://lorempixel.com/440/320/city/",
        "http://lorempixel.com/440/320/city/",
        "http://lorempixel.com/440/320/city/"
      ]
    },
    {
      "id": 14,
      "name": "Marzec, Matuszak and Godlewski",
      "place": "Okonek",
      "district": "Pomorskie",
      "starts": 4,
      "description": "Voluptate in officia non dolorem voluptatem cum.",
      "wifi": false,
      "tv": true,
      "food": false,
      "paypas": true,
      "swimming": true,
      "airport": true,
      "parking": false,
      "price": 7,
      "oldprice": 17,
      "score": 4.6,
      "opinion_count": 128,
      "latitude": "28.094179679402",
      "longitude": "-144.459074258286",
      "created_at": "2015-08-31T12:59:46.000+02:00",
      "updated_at": "2015-08-31T12:59:46.000+02:00",
      "image": "http://lorempixel.com/440/320/city/",
      "gallery": [
        "http://lorempixel.com/440/320/city/",
        "http://lorempixel.com/440/320/city/",
        "http://lorempixel.com/440/320/city/"
      ]
    },
    {
      "id": 17,
      "name": "Bednarek, Korzeniowski and Maj",
      "place": "Sędziszów Małopolski",
      "district": "Kujawsko-pomorskie",
      "starts": 1,
      "description": "Rerum placeat vel numquam ut doloremque.",
      "wifi": false,
      "tv": true,
      "food": true,
      "paypas": false,
      "swimming": true,
      "airport": true,
      "parking": true,
      "price": 47,
      "oldprice": 50,
      "score": 1.2,
      "opinion_count": 115,
      "latitude": "45.000671882086",
      "longitude": "-12.094970007567",
      "created_at": "2015-08-31T12:59:46.000+02:00",
      "updated_at": "2015-08-31T12:59:46.000+02:00",
      "image": "http://lorempixel.com/440/320/city/",
      "gallery": [
        "http://lorempixel.com/440/320/city/",
        "http://lorempixel.com/440/320/city/",
        "http://lorempixel.com/440/320/city/"
      ]
    },
    {
      "id": 20,
      "name": "Walczak, Milewski and Kot",
      "place": "Opole Lubelskie",
      "district": "Podkarpackie",
      "starts": 2,
      "description": "Dolor illo reiciendis consequatur enim ut.",
      "wifi": false,
      "tv": true,
      "food": true,
      "paypas": false,
      "swimming": true,
      "airport": true,
      "parking": true,
      "price": 33,
      "oldprice": 33,
      "score": 2.2,
      "opinion_count": 34,
      "latitude": "-74.87457349059",
      "longitude": "14.663131471294",
      "created_at": "2015-08-31T12:59:46.000+02:00",
      "updated_at": "2015-08-31T12:59:46.000+02:00",
      "image": "http://lorempixel.com/440/320/city/",
      "gallery": [
        "http://lorempixel.com/440/320/city/",
        "http://lorempixel.com/440/320/city/",
        "http://lorempixel.com/440/320/city/"
      ]
    },
    {
      "id": 23,
      "name": "Wiśniewski-Molenda",
      "place": "Puławy",
      "district": "Podlaskie",
      "starts": 1,
      "description": "Eveniet eum dignissimos et aliquid laboriosam aliquam.",
      "wifi": true,
      "tv": true,
      "food": true,
      "paypas": true,
      "swimming": true,
      "airport": false,
      "parking": true,
      "price": 5,
      "oldprice": 36,
      "score": 5.4,
      "opinion_count": 66,
      "latitude": "-59.890850295942",
      "longitude": "168.253668466191",
      "created_at": "2015-08-31T12:59:46.000+02:00",
      "updated_at": "2015-08-31T12:59:46.000+02:00",
      "image": "http://lorempixel.com/440/320/city/",
      "gallery": [
        "http://lorempixel.com/440/320/city/",
        "http://lorempixel.com/440/320/city/",
        "http://lorempixel.com/440/320/city/"
      ]
    },
    {
      "id": 26,
      "name": "Kopeć-Długosz",
      "place": "Jutrosin",
      "district": "Lubuskie",
      "starts": 3,
      "description": "Ex in accusamus non odio rerum.",
      "wifi": false,
      "tv": true,
      "food": false,
      "paypas": true,
      "swimming": false,
      "airport": false,
      "parking": true,
      "price": 36,
      "oldprice": 36,
      "score": 5.1,
      "opinion_count": 86,
      "latitude": "-33.072726967864",
      "longitude": "44.744222049248",
      "created_at": "2015-08-31T12:59:46.000+02:00",
      "updated_at": "2015-08-31T12:59:46.000+02:00",
      "image": "http://lorempixel.com/440/320/city/",
      "gallery": [
        "http://lorempixel.com/440/320/city/",
        "http://lorempixel.com/440/320/city/",
        "http://lorempixel.com/440/320/city/"
      ]
    },
    {
      "id": 29,
      "name": "Witczak LLC",
      "place": "Pleszew",
      "district": "Lubuskie",
      "starts": 2,
      "description": "Commodi quo accusamus sed.",
      "wifi": true,
      "tv": false,
      "food": false,
      "paypas": false,
      "swimming": true,
      "airport": true,
      "parking": false,
      "price": 83,
      "oldprice": 55,
      "score": 9.1,
      "opinion_count": 79,
      "latitude": "57.901206015239",
      "longitude": "24.156014030704",
      "created_at": "2015-08-31T12:59:46.000+02:00",
      "updated_at": "2015-08-31T12:59:46.000+02:00",
      "image": "http://lorempixel.com/440/320/city/",
      "gallery": [
        "http://lorempixel.com/440/320/city/",
        "http://lorempixel.com/440/320/city/",
        "http://lorempixel.com/440/320/city/"
      ]
    },
    {
      "id": 32,
      "name": "Łukaszewski, Szczepaniak and Maliszewski",
      "place": "Miłosław",
      "district": "Małopolskie",
      "starts": 4,
      "description": "Impedit enim autem reiciendis sed.",
      "wifi": true,
      "tv": false,
      "food": true,
      "paypas": false,
      "swimming": false,
      "airport": false,
      "parking": false,
      "price": 60,
      "oldprice": 67,
      "score": 5.1,
      "opinion_count": 45,
      "latitude": "-89.613065267874",
      "longitude": "177.558599532182",
      "created_at": "2015-08-31T12:59:46.000+02:00",
      "updated_at": "2015-08-31T12:59:46.000+02:00",
      "image": "http://lorempixel.com/440/320/city/",
      "gallery": [
        "http://lorempixel.com/440/320/city/",
        "http://lorempixel.com/440/320/city/",
        "http://lorempixel.com/440/320/city/"
      ]
    },
    {
      "id": 35,
      "name": "Szcześniak, Krzemiński and Górski",
      "place": "Trzebinia",
      "district": "Kujawsko-pomorskie",
      "starts": 5,
      "description": "Distinctio harum illo sunt et cupiditate sapiente.",
      "wifi": true,
      "tv": false,
      "food": false,
      "paypas": true,
      "swimming": true,
      "airport": false,
      "parking": true,
      "price": 6,
      "oldprice": 28,
      "score": 4.7,
      "opinion_count": 99,
      "latitude": "18.466915412994",
      "longitude": "98.765620825936",
      "created_at": "2015-08-31T12:59:46.000+02:00",
      "updated_at": "2015-08-31T12:59:46.000+02:00",
      "image": "http://lorempixel.com/440/320/city/",
      "gallery": [
        "http://lorempixel.com/440/320/city/",
        "http://lorempixel.com/440/320/city/",
        "http://lorempixel.com/440/320/city/"
      ]
    },
    {
      "id": 38,
      "name": "Urbanowicz-Lesiak",
      "place": "Różan",
      "district": "Śląskie",
      "starts": 4,
      "description": "Illum eaque iusto est.",
      "wifi": false,
      "tv": false,
      "food": false,
      "paypas": true,
      "swimming": true,
      "airport": true,
      "parking": false,
      "price": 51,
      "oldprice": 27,
      "score": 0.3,
      "opinion_count": 25,
      "latitude": "-50.459151828759",
      "longitude": "-45.285555953596",
      "created_at": "2015-08-31T12:59:46.000+02:00",
      "updated_at": "2015-08-31T12:59:46.000+02:00",
      "image": "http://lorempixel.com/440/320/city/",
      "gallery": [
        "http://lorempixel.com/440/320/city/",
        "http://lorempixel.com/440/320/city/",
        "http://lorempixel.com/440/320/city/"
      ]
    },
    {
      "id": 41,
      "name": "Mucha and Sons",
      "place": "Pruszków",
      "district": "Warmińsko-mazurskie",
      "starts": 4,
      "description": "Et blanditiis consectetur occaecati sapiente deleniti dolores voluptatem.",
      "wifi": false,
      "tv": true,
      "food": false,
      "paypas": false,
      "swimming": false,
      "airport": false,
      "parking": true,
      "price": 35,
      "oldprice": 50,
      "score": 8.6,
      "opinion_count": 34,
      "latitude": "59.287085862653",
      "longitude": "-51.919760725338",
      "created_at": "2015-08-31T12:59:46.000+02:00",
      "updated_at": "2015-08-31T12:59:46.000+02:00",
      "image": "http://lorempixel.com/440/320/city/",
      "gallery": [
        "http://lorempixel.com/440/320/city/",
        "http://lorempixel.com/440/320/city/",
        "http://lorempixel.com/440/320/city/"
      ]
    },
    {
      "id": 44,
      "name": "Serafin-Piechota",
      "place": "Mrągowo",
      "district": "Podlaskie",
      "starts": 1,
      "description": "Voluptas neque ut animi ut.",
      "wifi": false,
      "tv": true,
      "food": false,
      "paypas": false,
      "swimming": true,
      "airport": true,
      "parking": true,
      "price": 58,
      "oldprice": 1,
      "score": 4.5,
      "opinion_count": 45,
      "latitude": "-82.235729184686",
      "longitude": "-26.566860831123",
      "created_at": "2015-08-31T12:59:46.000+02:00",
      "updated_at": "2015-08-31T12:59:46.000+02:00",
      "image": "http://lorempixel.com/440/320/city/",
      "gallery": [
        "http://lorempixel.com/440/320/city/",
        "http://lorempixel.com/440/320/city/",
        "http://lorempixel.com/440/320/city/"
      ]
    },
    {
      "id": 47,
      "name": "Woliński-Wawrzyniak",
      "place": "Lębork",
      "district": "Małopolskie",
      "starts": 3,
      "description": "Et consectetur reiciendis voluptatem magnam.",
      "wifi": false,
      "tv": false,
      "food": true,
      "paypas": true,
      "swimming": true,
      "airport": false,
      "parking": true,
      "price": 85,
      "oldprice": 99,
      "score": 4.4,
      "opinion_count": 119,
      "latitude": "5.422276736919",
      "longitude": "-61.081237371219",
      "created_at": "2015-08-31T12:59:46.000+02:00",
      "updated_at": "2015-08-31T12:59:46.000+02:00",
      "image": "http://lorempixel.com/440/320/city/",
      "gallery": [
        "http://lorempixel.com/440/320/city/",
        "http://lorempixel.com/440/320/city/",
        "http://lorempixel.com/440/320/city/"
      ]
    },
    {
      "id": 50,
      "name": "Marchewka-Zaręba",
      "place": "Tuchola",
      "district": "Wielkopolskie",
      "starts": 1,
      "description": "Perferendis non qui repudiandae et.",
      "wifi": true,
      "tv": false,
      "food": false,
      "paypas": false,
      "swimming": false,
      "airport": false,
      "parking": false,
      "price": 72,
      "oldprice": 3,
      "score": 6.0,
      "opinion_count": 74,
      "latitude": "-6.641454811628",
      "longitude": "-18.069319394609",
      "created_at": "2015-08-31T12:59:46.000+02:00",
      "updated_at": "2015-08-31T12:59:46.000+02:00",
      "image": "http://lorempixel.com/440/320/city/",
      "gallery": [
        "http://lorempixel.com/440/320/city/",
        "http://lorempixel.com/440/320/city/",
        "http://lorempixel.com/440/320/city/"
      ]
    },
    {
      "id": 53,
      "name": "Furman, Szczerba and Maj",
      "place": "Tomaszów Mazowiecki",
      "district": "Świętokrzyskie",
      "starts": 3,
      "description": "Minima ratione qui eaque in.",
      "wifi": true,
      "tv": true,
      "food": true,
      "paypas": true,
      "swimming": true,
      "airport": true,
      "parking": true,
      "price": 49,
      "oldprice": 24,
      "score": 7.8,
      "opinion_count": 35,
      "latitude": "86.362883730664",
      "longitude": "-169.191706104501",
      "created_at": "2015-08-31T12:59:46.000+02:00",
      "updated_at": "2015-08-31T12:59:46.000+02:00",
      "image": "http://lorempixel.com/440/320/city/",
      "gallery": [
        "http://lorempixel.com/440/320/city/",
        "http://lorempixel.com/440/320/city/",
        "http://lorempixel.com/440/320/city/"
      ]
    },
    {
      "id": 56,
      "name": "Żmuda, Tomczyk and Ślusarczyk",
      "place": "Barwice",
      "district": "Kujawsko-pomorskie",
      "starts": 4,
      "description": "Vel officiis voluptatem esse.",
      "wifi": false,
      "tv": true,
      "food": false,
      "paypas": true,
      "swimming": true,
      "airport": true,
      "parking": false,
      "price": 23,
      "oldprice": 36,
      "score": 5.8,
      "opinion_count": 115,
      "latitude": "25.401985180435",
      "longitude": "163.592253671538",
      "created_at": "2015-08-31T12:59:46.000+02:00",
      "updated_at": "2015-08-31T12:59:46.000+02:00",
      "image": "http://lorempixel.com/440/320/city/",
      "gallery": [
        "http://lorempixel.com/440/320/city/",
        "http://lorempixel.com/440/320/city/",
        "http://lorempixel.com/440/320/city/"
      ]
    },
    {
      "id": 59,
      "name": "Kmieć, Kawecki and Winiarski",
      "place": "Zawidów",
      "district": "Podlaskie",
      "starts": 5,
      "description": "Expedita velit odit sint dolorum et.",
      "wifi": true,
      "tv": true,
      "food": false,
      "paypas": false,
      "swimming": true,
      "airport": false,
      "parking": false,
      "price": 64,
      "oldprice": 59,
      "score": 7.7,
      "opinion_count": 43,
      "latitude": "-40.443830678563",
      "longitude": "158.770424172709",
      "created_at": "2015-08-31T12:59:46.000+02:00",
      "updated_at": "2015-08-31T12:59:46.000+02:00",
      "image": "http://lorempixel.com/440/320/city/",
      "gallery": [
        "http://lorempixel.com/440/320/city/",
        "http://lorempixel.com/440/320/city/",
        "http://lorempixel.com/440/320/city/"
      ]
    },
    {
      "id": 62,
      "name": "Kacprzak LLC",
      "place": "Ożarów",
      "district": "Lubelskie",
      "starts": 3,
      "description": "Et blanditiis numquam ullam aliquid molestiae quibusdam maiores.",
      "wifi": false,
      "tv": true,
      "food": false,
      "paypas": false,
      "swimming": true,
      "airport": true,
      "parking": true,
      "price": 85,
      "oldprice": 48,
      "score": 9.2,
      "opinion_count": 20,
      "latitude": "-56.587449533116",
      "longitude": "-114.969178563491",
      "created_at": "2015-08-31T12:59:46.000+02:00",
      "updated_at": "2015-08-31T12:59:46.000+02:00",
      "image": "http://lorempixel.com/440/320/city/",
      "gallery": [
        "http://lorempixel.com/440/320/city/",
        "http://lorempixel.com/440/320/city/",
        "http://lorempixel.com/440/320/city/"
      ]
    },
    {
      "id": 65,
      "name": "Wilczyński-Żurek",
      "place": "Chodzież",
      "district": "Świętokrzyskie",
      "starts": 1,
      "description": "Saepe eum impedit ut voluptatibus perspiciatis.",
      "wifi": true,
      "tv": false,
      "food": false,
      "paypas": false,
      "swimming": true,
      "airport": true,
      "parking": false,
      "price": 98,
      "oldprice": 76,
      "score": 4.3,
      "opinion_count": 129,
      "latitude": "61.660876473371",
      "longitude": "154.910829730979",
      "created_at": "2015-08-31T12:59:46.000+02:00",
      "updated_at": "2015-08-31T12:59:46.000+02:00",
      "image": "http://lorempixel.com/440/320/city/",
      "gallery": [
        "http://lorempixel.com/440/320/city/",
        "http://lorempixel.com/440/320/city/",
        "http://lorempixel.com/440/320/city/"
      ]
    },
    {
      "id": 68,
      "name": "Kaczmarski, Czerniak and Czechowski",
      "place": "Szczecinek",
      "district": "Zachodniopomorskie",
      "starts": 4,
      "description": "Distinctio totam possimus sunt molestiae.",
      "wifi": true,
      "tv": false,
      "food": false,
      "paypas": false,
      "swimming": true,
      "airport": false,
      "parking": false,
      "price": 13,
      "oldprice": 74,
      "score": 4.3,
      "opinion_count": 50,
      "latitude": "-66.726881269726",
      "longitude": "20.536262424429",
      "created_at": "2015-08-31T12:59:46.000+02:00",
      "updated_at": "2015-08-31T12:59:46.000+02:00",
      "image": "http://lorempixel.com/440/320/city/",
      "gallery": [
        "http://lorempixel.com/440/320/city/",
        "http://lorempixel.com/440/320/city/",
        "http://lorempixel.com/440/320/city/"
      ]
    },
    {
      "id": 71,
      "name": "Orłowski, Rudziński and Noga",
      "place": "Pieszyce",
      "district": "Łódzkie",
      "starts": 4,
      "description": "Molestiae ut sit tempore officia ullam aliquam tempora.",
      "wifi": true,
      "tv": false,
      "food": true,
      "paypas": false,
      "swimming": true,
      "airport": true,
      "parking": true,
      "price": 78,
      "oldprice": 6,
      "score": 8.1,
      "opinion_count": 64,
      "latitude": "74.644555256514",
      "longitude": "8.632760819464",
      "created_at": "2015-08-31T12:59:46.000+02:00",
      "updated_at": "2015-08-31T12:59:46.000+02:00",
      "image": "http://lorempixel.com/440/320/city/",
      "gallery": [
        "http://lorempixel.com/440/320/city/",
        "http://lorempixel.com/440/320/city/",
        "http://lorempixel.com/440/320/city/"
      ]
    },
    {
      "id": 74,
      "name": "Zawadzki-Cieślak",
      "place": "Orzesze",
      "district": "Małopolskie",
      "starts": 4,
      "description": "Est voluptatibus hic qui maiores repudiandae tempora sit.",
      "wifi": false,
      "tv": true,
      "food": false,
      "paypas": true,
      "swimming": true,
      "airport": true,
      "parking": false,
      "price": 72,
      "oldprice": 76,
      "score": 5.3,
      "opinion_count": 59,
      "latitude": "-23.34460939954",
      "longitude": "-56.434313080897",
      "created_at": "2015-08-31T12:59:46.000+02:00",
      "updated_at": "2015-08-31T12:59:46.000+02:00",
      "image": "http://lorempixel.com/440/320/city/",
      "gallery": [
        "http://lorempixel.com/440/320/city/",
        "http://lorempixel.com/440/320/city/",
        "http://lorempixel.com/440/320/city/"
      ]
    }
  ],
  "page": 1,
  "total_pages": 4,
  "total_count": 100
}