{
  "places": [
    {
      "id": 227,
      "name": "Domański-Izdebski",
      "place": "Ryn",
      "district": "Zachodniopomorskie",
      "starts": 1,
      "description": "Dolorum quia aliquid voluptatibus enim quasi et repellat.",
      "wifi": true,
      "tv": true,
      "food": false,
      "paypas": true,
      "swimming": true,
      "airport": true,
      "parking": false,
      "price": 99,
      "oldprice": 20,
      "score": 5.1,
      "opinion_count": 15,
      "latitude": "-41.700335799102",
      "longitude": "56.358267509533",
      "created_at": "2015-08-31T12:59:47.000+02:00",
      "updated_at": "2015-08-31T12:59:47.000+02:00",
      "image": "http://lorempixel.com/440/320/city/",
      "gallery": [
        "http://lorempixel.com/440/320/city/",
        "http://lorempixel.com/440/320/city/",
        "http://lorempixel.com/440/320/city/"
      ]
    },
    {
      "id": 230,
      "name": "Rudnicki-Tarnowski",
      "place": "Zagórz",
      "district": "Lubuskie",
      "starts": 2,
      "description": "Perferendis aut ut aut molestiae dolorum placeat nobis.",
      "wifi": false,
      "tv": true,
      "food": false,
      "paypas": false,
      "swimming": true,
      "airport": true,
      "parking": false,
      "price": 68,
      "oldprice": 5,
      "score": 5.7,
      "opinion_count": 19,
      "latitude": "-43.254821924984",
      "longitude": "-118.564711069533",
      "created_at": "2015-08-31T12:59:47.000+02:00",
      "updated_at": "2015-08-31T12:59:47.000+02:00",
      "image": "http://lorempixel.com/440/320/city/",
      "gallery": [
        "http://lorempixel.com/440/320/city/",
        "http://lorempixel.com/440/320/city/",
        "http://lorempixel.com/440/320/city/"
      ]
    },
    {
      "id": 233,
      "name": "Żak, Budzyński and Wójcicki",
      "place": "Barwice",
      "district": "Dolnośląskie",
      "starts": 4,
      "description": "Provident repellat quibusdam.",
      "wifi": false,
      "tv": false,
      "food": true,
      "paypas": true,
      "swimming": true,
      "airport": false,
      "parking": false,
      "price": 12,
      "oldprice": 28,
      "score": 1.8,
      "opinion_count": 135,
      "latitude": "-33.144968700007",
      "longitude": "-22.743841576156",
      "created_at": "2015-08-31T12:59:47.000+02:00",
      "updated_at": "2015-08-31T12:59:47.000+02:00",
      "image": "http://lorempixel.com/440/320/city/",
      "gallery": [
        "http://lorempixel.com/440/320/city/",
        "http://lorempixel.com/440/320/city/",
        "http://lorempixel.com/440/320/city/"
      ]
    },
    {
      "id": 236,
      "name": "Borowski, Sokołowski and Kołodziejczyk",
      "place": "Mława",
      "district": "Pomorskie",
      "starts": 1,
      "description": "Quo asperiores neque.",
      "wifi": false,
      "tv": true,
      "food": true,
      "paypas": true,
      "swimming": true,
      "airport": false,
      "parking": false,
      "price": 33,
      "oldprice": 47,
      "score": 8.6,
      "opinion_count": 60,
      "latitude": "58.997042445041",
      "longitude": "0.213126553458",
      "created_at": "2015-08-31T12:59:47.000+02:00",
      "updated_at": "2015-08-31T12:59:47.000+02:00",
      "image": "http://lorempixel.com/440/320/city/",
      "gallery": [
        "http://lorempixel.com/440/320/city/",
        "http://lorempixel.com/440/320/city/",
        "http://lorempixel.com/440/320/city/"
      ]
    },
    {
      "id": 239,
      "name": "Rybak LLC",
      "place": "Stalowa Wola",
      "district": "Świętokrzyskie",
      "starts": 4,
      "description": "Aspernatur facere similique.",
      "wifi": false,
      "tv": true,
      "food": true,
      "paypas": true,
      "swimming": false,
      "airport": false,
      "parking": false,
      "price": 46,
      "oldprice": 77,
      "score": 3.5,
      "opinion_count": 109,
      "latitude": "-65.807497214185",
      "longitude": "77.983985451199",
      "created_at": "2015-08-31T12:59:47.000+02:00",
      "updated_at": "2015-08-31T12:59:47.000+02:00",
      "image": "http://lorempixel.com/440/320/city/",
      "gallery": [
        "http://lorempixel.com/440/320/city/",
        "http://lorempixel.com/440/320/city/",
        "http://lorempixel.com/440/320/city/"
      ]
    },
    {
      "id": 242,
      "name": "Niemczyk, Bielawski and Czapla",
      "place": "Lubawka",
      "district": "Mazowieckie",
      "starts": 2,
      "description": "Quasi ipsam repudiandae laudantium sed excepturi hic.",
      "wifi": true,
      "tv": true,
      "food": true,
      "paypas": false,
      "swimming": false,
      "airport": true,
      "parking": true,
      "price": 22,
      "oldprice": 11,
      "score": 4.5,
      "opinion_count": 119,
      "latitude": "-66.027546138455",
      "longitude": "155.59187159246",
      "created_at": "2015-08-31T12:59:47.000+02:00",
      "updated_at": "2015-08-31T12:59:47.000+02:00",
      "image": "http://lorempixel.com/440/320/city/",
      "gallery": [
        "http://lorempixel.com/440/320/city/",
        "http://lorempixel.com/440/320/city/",
        "http://lorempixel.com/440/320/city/"
      ]
    },
    {
      "id": 245,
      "name": "Głowacki and Sons",
      "place": "Nieszawa",
      "district": "Mazowieckie",
      "starts": 5,
      "description": "Accusamus in debitis nihil repudiandae doloremque minima.",
      "wifi": true,
      "tv": false,
      "food": false,
      "paypas": false,
      "swimming": true,
      "airport": true,
      "parking": true,
      "price": 57,
      "oldprice": 72,
      "score": 5.8,
      "opinion_count": 81,
      "latitude": "65.992391147053",
      "longitude": "25.159054296202",
      "created_at": "2015-08-31T12:59:47.000+02:00",
      "updated_at": "2015-08-31T12:59:47.000+02:00",
      "image": "http://lorempixel.com/440/320/city/",
      "gallery": [
        "http://lorempixel.com/440/320/city/",
        "http://lorempixel.com/440/320/city/",
        "http://lorempixel.com/440/320/city/"
      ]
    },
    {
      "id": 248,
      "name": "Porębski LLC",
      "place": "Przecław",
      "district": "Lubuskie",
      "starts": 1,
      "description": "Atque ratione et.",
      "wifi": false,
      "tv": true,
      "food": false,
      "paypas": false,
      "swimming": true,
      "airport": true,
      "parking": true,
      "price": 32,
      "oldprice": 58,
      "score": 6.2,
      "opinion_count": 135,
      "latitude": "-44.885274161114",
      "longitude": "111.690441260436",
      "created_at": "2015-08-31T12:59:47.000+02:00",
      "updated_at": "2015-08-31T12:59:47.000+02:00",
      "image": "http://lorempixel.com/440/320/city/",
      "gallery": [
        "http://lorempixel.com/440/320/city/",
        "http://lorempixel.com/440/320/city/",
        "http://lorempixel.com/440/320/city/"
      ]
    },
    {
      "id": 251,
      "name": "Jabłoński-Jakubowski",
      "place": "Zambrów",
      "district": "Lubuskie",
      "starts": 1,
      "description": "Enim est qui.",
      "wifi": false,
      "tv": false,
      "food": true,
      "paypas": true,
      "swimming": true,
      "airport": false,
      "parking": true,
      "price": 31,
      "oldprice": 47,
      "score": 5.6,
      "opinion_count": 20,
      "latitude": "19.790147150108",
      "longitude": "-55.294829611119",
      "created_at": "2015-08-31T12:59:47.000+02:00",
      "updated_at": "2015-08-31T12:59:47.000+02:00",
      "image": "http://lorempixel.com/440/320/city/",
      "gallery": [
        "http://lorempixel.com/440/320/city/",
        "http://lorempixel.com/440/320/city/",
        "http://lorempixel.com/440/320/city/"
      ]
    },
    {
      "id": 254,
      "name": "Filipek Inc",
      "place": "Pruszcz Gdański",
      "district": "Warmińsko-mazurskie",
      "starts": 4,
      "description": "Aperiam quis ea non incidunt deleniti doloremque debitis.",
      "wifi": false,
      "tv": false,
      "food": true,
      "paypas": false,
      "swimming": false,
      "airport": true,
      "parking": true,
      "price": 13,
      "oldprice": 85,
      "score": 2.5,
      "opinion_count": 35,
      "latitude": "-53.189803416264",
      "longitude": "-137.009570040078",
      "created_at": "2015-08-31T12:59:47.000+02:00",
      "updated_at": "2015-08-31T12:59:47.000+02:00",
      "image": "http://lorempixel.com/440/320/city/",
      "gallery": [
        "http://lorempixel.com/440/320/city/",
        "http://lorempixel.com/440/320/city/",
        "http://lorempixel.com/440/320/city/"
      ]
    },
    {
      "id": 257,
      "name": "Kucharczyk, Brzozowski and Wróbel",
      "place": "Tychowo",
      "district": "Podlaskie",
      "starts": 2,
      "description": "Eos numquam impedit consequatur quia nobis vitae.",
      "wifi": false,
      "tv": true,
      "food": false,
      "paypas": true,
      "swimming": false,
      "airport": false,
      "parking": true,
      "price": 21,
      "oldprice": 24,
      "score": 2.5,
      "opinion_count": 137,
      "latitude": "-47.509423406327",
      "longitude": "-134.339069486832",
      "created_at": "2015-08-31T12:59:47.000+02:00",
      "updated_at": "2015-08-31T12:59:47.000+02:00",
      "image": "http://lorempixel.com/440/320/city/",
      "gallery": [
        "http://lorempixel.com/440/320/city/",
        "http://lorempixel.com/440/320/city/",
        "http://lorempixel.com/440/320/city/"
      ]
    },
    {
      "id": 260,
      "name": "Flak Group",
      "place": "Poznań",
      "district": "Mazowieckie",
      "starts": 2,
      "description": "Aut explicabo laborum omnis quam rerum blanditiis.",
      "wifi": true,
      "tv": false,
      "food": false,
      "paypas": false,
      "swimming": false,
      "airport": true,
      "parking": false,
      "price": 93,
      "oldprice": 68,
      "score": 2.8,
      "opinion_count": 140,
      "latitude": "13.325814958244",
      "longitude": "125.925931344422",
      "created_at": "2015-08-31T12:59:47.000+02:00",
      "updated_at": "2015-08-31T12:59:47.000+02:00",
      "image": "http://lorempixel.com/440/320/city/",
      "gallery": [
        "http://lorempixel.com/440/320/city/",
        "http://lorempixel.com/440/320/city/",
        "http://lorempixel.com/440/320/city/"
      ]
    },
    {
      "id": 263,
      "name": "Misiak-Maćkowiak",
      "place": "Ciechanów",
      "district": "Dolnośląskie",
      "starts": 3,
      "description": "Enim labore maxime qui reiciendis.",
      "wifi": false,
      "tv": true,
      "food": false,
      "paypas": true,
      "swimming": false,
      "airport": true,
      "parking": true,
      "price": 43,
      "oldprice": 66,
      "score": 6.2,
      "opinion_count": 135,
      "latitude": "-35.632660695915",
      "longitude": "-81.909923144496",
      "created_at": "2015-08-31T12:59:47.000+02:00",
      "updated_at": "2015-08-31T12:59:47.000+02:00",
      "image": "http://lorempixel.com/440/320/city/",
      "gallery": [
        "http://lorempixel.com/440/320/city/",
        "http://lorempixel.com/440/320/city/",
        "http://lorempixel.com/440/320/city/"
      ]
    },
    {
      "id": 266,
      "name": "Stachowiak-Herman",
      "place": "Krzywiń",
      "district": "Podkarpackie",
      "starts": 4,
      "description": "Atque molestiae tempora non quasi et.",
      "wifi": false,
      "tv": false,
      "food": true,
      "paypas": false,
      "swimming": true,
      "airport": true,
      "parking": false,
      "price": 70,
      "oldprice": 95,
      "score": 3.5,
      "opinion_count": 130,
      "latitude": "-64.955334504094",
      "longitude": "-20.871857561297",
      "created_at": "2015-08-31T12:59:47.000+02:00",
      "updated_at": "2015-08-31T12:59:47.000+02:00",
      "image": "http://lorempixel.com/440/320/city/",
      "gallery": [
        "http://lorempixel.com/440/320/city/",
        "http://lorempixel.com/440/320/city/",
        "http://lorempixel.com/440/320/city/"
      ]
    },
    {
      "id": 269,
      "name": "Biernacki-Podgórski",
      "place": "Nałęczów",
      "district": "Podkarpackie",
      "starts": 2,
      "description": "Quia dicta est nihil illo et.",
      "wifi": true,
      "tv": false,
      "food": true,
      "paypas": true,
      "swimming": false,
      "airport": true,
      "parking": true,
      "price": 67,
      "oldprice": 5,
      "score": 0.7,
      "opinion_count": 54,
      "latitude": "10.49078357975",
      "longitude": "-83.124546324688",
      "created_at": "2015-08-31T12:59:47.000+02:00",
      "updated_at": "2015-08-31T12:59:47.000+02:00",
      "image": "http://lorempixel.com/440/320/city/",
      "gallery": [
        "http://lorempixel.com/440/320/city/",
        "http://lorempixel.com/440/320/city/",
        "http://lorempixel.com/440/320/city/"
      ]
    },
    {
      "id": 272,
      "name": "Jackowski, Błaszczyk and Wróblewski",
      "place": "Karpacz",
      "district": "Pomorskie",
      "starts": 5,
      "description": "Facilis quaerat rem nihil quidem.",
      "wifi": false,
      "tv": false,
      "food": false,
      "paypas": true,
      "swimming": false,
      "airport": true,
      "parking": false,
      "price": 13,
      "oldprice": 14,
      "score": 2.2,
      "opinion_count": 100,
      "latitude": "-5.557798995855",
      "longitude": "36.651824063139",
      "created_at": "2015-08-31T12:59:47.000+02:00",
      "updated_at": "2015-08-31T12:59:47.000+02:00",
      "image": "http://lorempixel.com/440/320/city/",
      "gallery": [
        "http://lorempixel.com/440/320/city/",
        "http://lorempixel.com/440/320/city/",
        "http://lorempixel.com/440/320/city/"
      ]
    },
    {
      "id": 275,
      "name": "Kozioł Inc",
      "place": "Suchań",
      "district": "Wielkopolskie",
      "starts": 3,
      "description": "Dolores accusantium veritatis sit qui perspiciatis.",
      "wifi": false,
      "tv": false,
      "food": true,
      "paypas": false,
      "swimming": true,
      "airport": false,
      "parking": false,
      "price": 4,
      "oldprice": 79,
      "score": 2.4,
      "opinion_count": 45,
      "latitude": "-56.459317128386",
      "longitude": "107.65929770912",
      "created_at": "2015-08-31T12:59:47.000+02:00",
      "updated_at": "2015-08-31T12:59:47.000+02:00",
      "image": "http://lorempixel.com/440/320/city/",
      "gallery": [
        "http://lorempixel.com/440/320/city/",
        "http://lorempixel.com/440/320/city/",
        "http://lorempixel.com/440/320/city/"
      ]
    },
    {
      "id": 278,
      "name": "Pluta Group",
      "place": "Stoczek Łukowski",
      "district": "Świętokrzyskie",
      "starts": 3,
      "description": "Dignissimos ullam magni ut nulla debitis quae.",
      "wifi": false,
      "tv": false,
      "food": false,
      "paypas": false,
      "swimming": true,
      "airport": true,
      "parking": false,
      "price": 59,
      "oldprice": 38,
      "score": 1.3,
      "opinion_count": 111,
      "latitude": "0.8354765214",
      "longitude": "22.884042275083",
      "created_at": "2015-08-31T12:59:47.000+02:00",
      "updated_at": "2015-08-31T12:59:47.000+02:00",
      "image": "http://lorempixel.com/440/320/city/",
      "gallery": [
        "http://lorempixel.com/440/320/city/",
        "http://lorempixel.com/440/320/city/",
        "http://lorempixel.com/440/320/city/"
      ]
    },
    {
      "id": 281,
      "name": "Przybył, Krawiec and Cebula",
      "place": "Kazimierza Wielka",
      "district": "Opolskie",
      "starts": 3,
      "description": "Et qui inventore.",
      "wifi": true,
      "tv": false,
      "food": false,
      "paypas": true,
      "swimming": false,
      "airport": true,
      "parking": false,
      "price": 79,
      "oldprice": 64,
      "score": 5.8,
      "opinion_count": 77,
      "latitude": "-0.627187414034",
      "longitude": "130.714889651479",
      "created_at": "2015-08-31T12:59:47.000+02:00",
      "updated_at": "2015-08-31T12:59:47.000+02:00",
      "image": "http://lorempixel.com/440/320/city/",
      "gallery": [
        "http://lorempixel.com/440/320/city/",
        "http://lorempixel.com/440/320/city/",
        "http://lorempixel.com/440/320/city/"
      ]
    },
    {
      "id": 284,
      "name": "Osiński-Michalak",
      "place": "Karczew",
      "district": "Warmińsko-mazurskie",
      "starts": 4,
      "description": "Et porro id perferendis voluptas est.",
      "wifi": false,
      "tv": false,
      "food": false,
      "paypas": false,
      "swimming": true,
      "airport": false,
      "parking": true,
      "price": 97,
      "oldprice": 33,
      "score": 6.1,
      "opinion_count": 70,
      "latitude": "-60.353410714489",
      "longitude": "95.976287580503",
      "created_at": "2015-08-31T12:59:47.000+02:00",
      "updated_at": "2015-08-31T12:59:47.000+02:00",
      "image": "http://lorempixel.com/440/320/city/",
      "gallery": [
        "http://lorempixel.com/440/320/city/",
        "http://lorempixel.com/440/320/city/",
        "http://lorempixel.com/440/320/city/"
      ]
    },
    {
      "id": 287,
      "name": "Mrozek Group",
      "place": "Krzanowice",
      "district": "Lubelskie",
      "starts": 3,
      "description": "Ut quaerat culpa.",
      "wifi": true,
      "tv": false,
      "food": true,
      "paypas": true,
      "swimming": true,
      "airport": true,
      "parking": true,
      "price": 63,
      "oldprice": 5,
      "score": 8.8,
      "opinion_count": 55,
      "latitude": "-58.194300215263",
      "longitude": "-57.834268962068",
      "created_at": "2015-08-31T12:59:47.000+02:00",
      "updated_at": "2015-08-31T12:59:47.000+02:00",
      "image": "http://lorempixel.com/440/320/city/",
      "gallery": [
        "http://lorempixel.com/440/320/city/",
        "http://lorempixel.com/440/320/city/",
        "http://lorempixel.com/440/320/city/"
      ]
    },
    {
      "id": 290,
      "name": "Makowski-Sobczyk",
      "place": "Ślesin",
      "district": "Opolskie",
      "starts": 3,
      "description": "Voluptas veniam ut quaerat commodi.",
      "wifi": false,
      "tv": false,
      "food": false,
      "paypas": true,
      "swimming": false,
      "airport": true,
      "parking": false,
      "price": 74,
      "oldprice": 32,
      "score": 2.6,
      "opinion_count": 130,
      "latitude": "-38.362050989266",
      "longitude": "51.274725696732",
      "created_at": "2015-08-31T12:59:47.000+02:00",
      "updated_at": "2015-08-31T12:59:47.000+02:00",
      "image": "http://lorempixel.com/440/320/city/",
      "gallery": [
        "http://lorempixel.com/440/320/city/",
        "http://lorempixel.com/440/320/city/",
        "http://lorempixel.com/440/320/city/"
      ]
    },
    {
      "id": 293,
      "name": "Koper-Buczkowski",
      "place": "Skierniewice",
      "district": "Zachodniopomorskie",
      "starts": 4,
      "description": "Nisi aspernatur deleniti delectus esse.",
      "wifi": true,
      "tv": false,
      "food": false,
      "paypas": false,
      "swimming": true,
      "airport": true,
      "parking": true,
      "price": 37,
      "oldprice": 57,
      "score": 8.2,
      "opinion_count": 80,
      "latitude": "-30.702723687237",
      "longitude": "-134.914651796338",
      "created_at": "2015-08-31T12:59:47.000+02:00",
      "updated_at": "2015-08-31T12:59:47.000+02:00",
      "image": "http://lorempixel.com/440/320/city/",
      "gallery": [
        "http://lorempixel.com/440/320/city/",
        "http://lorempixel.com/440/320/city/",
        "http://lorempixel.com/440/320/city/"
      ]
    },
    {
      "id": 296,
      "name": "Borowski, Bednarz and Chrzanowski",
      "place": "Ziębice",
      "district": "Podlaskie",
      "starts": 1,
      "description": "Quaerat quis repudiandae impedit provident consequatur est.",
      "wifi": false,
      "tv": false,
      "food": true,
      "paypas": true,
      "swimming": false,
      "airport": true,
      "parking": false,
      "price": 40,
      "oldprice": 44,
      "score": 5.8,
      "opinion_count": 145,
      "latitude": "-64.307158540793",
      "longitude": "104.482740206569",
      "created_at": "2015-08-31T12:59:47.000+02:00",
      "updated_at": "2015-08-31T12:59:47.000+02:00",
      "image": "http://lorempixel.com/440/320/city/",
      "gallery": [
        "http://lorempixel.com/440/320/city/",
        "http://lorempixel.com/440/320/city/",
        "http://lorempixel.com/440/320/city/"
      ]
    },
    {
      "id": 299,
      "name": "Grudzień-Kmiecik",
      "place": "Resko",
      "district": "Kujawsko-pomorskie",
      "starts": 1,
      "description": "Corrupti libero rerum enim rerum aut eos.",
      "wifi": true,
      "tv": false,
      "food": true,
      "paypas": true,
      "swimming": false,
      "airport": false,
      "parking": false,
      "price": 55,
      "oldprice": 50,
      "score": 9.7,
      "opinion_count": 107,
      "latitude": "9.674140420167",
      "longitude": "-32.288414529612",
      "created_at": "2015-08-31T12:59:47.000+02:00",
      "updated_at": "2015-08-31T12:59:47.000+02:00",
      "image": "http://lorempixel.com/440/320/city/",
      "gallery": [
        "http://lorempixel.com/440/320/city/",
        "http://lorempixel.com/440/320/city/",
        "http://lorempixel.com/440/320/city/"
      ]
    }
  ],
  "page": 4,
  "total_pages": 4,
  "total_count": 100
}