{
  "places": [
    {
      "id": 152,
      "name": "Kowalczyk, Rogala and Jurkiewicz",
      "place": "Dębica",
      "district": "Małopolskie",
      "starts": 3,
      "description": "Odio porro sint sit asperiores hic dolore.",
      "wifi": true,
      "tv": false,
      "food": false,
      "paypas": false,
      "swimming": true,
      "airport": false,
      "parking": false,
      "price": 56,
      "oldprice": 92,
      "score": 3.2,
      "opinion_count": 15,
      "latitude": "25.409995807341",
      "longitude": "157.242932909729",
      "created_at": "2015-08-31T12:59:46.000+02:00",
      "updated_at": "2015-08-31T12:59:46.000+02:00",
      "image": "http://lorempixel.com/440/320/city/",
      "gallery": [
        "http://lorempixel.com/440/320/city/",
        "http://lorempixel.com/440/320/city/",
        "http://lorempixel.com/440/320/city/"
      ]
    },
    {
      "id": 155,
      "name": "Rak-Marczak",
      "place": "Iława",
      "district": "Warmińsko-mazurskie",
      "starts": 2,
      "description": "Velit eveniet est tenetur.",
      "wifi": false,
      "tv": true,
      "food": false,
      "paypas": true,
      "swimming": false,
      "airport": false,
      "parking": false,
      "price": 33,
      "oldprice": 80,
      "score": 1.9,
      "opinion_count": 69,
      "latitude": "17.129902175808",
      "longitude": "-163.654647311411",
      "created_at": "2015-08-31T12:59:46.000+02:00",
      "updated_at": "2015-08-31T12:59:46.000+02:00",
      "image": "http://lorempixel.com/440/320/city/",
      "gallery": [
        "http://lorempixel.com/440/320/city/",
        "http://lorempixel.com/440/320/city/",
        "http://lorempixel.com/440/320/city/"
      ]
    },
    {
      "id": 158,
      "name": "Buczyński, Komorowski and Nowacki",
      "place": "Skępe",
      "district": "Podlaskie",
      "starts": 1,
      "description": "Quidem ut ratione possimus.",
      "wifi": true,
      "tv": true,
      "food": true,
      "paypas": false,
      "swimming": true,
      "airport": false,
      "parking": false,
      "price": 20,
      "oldprice": 61,
      "score": 1.8,
      "opinion_count": 125,
      "latitude": "-86.030364653529",
      "longitude": "-2.855896335164",
      "created_at": "2015-08-31T12:59:46.000+02:00",
      "updated_at": "2015-08-31T12:59:46.000+02:00",
      "image": "http://lorempixel.com/440/320/city/",
      "gallery": [
        "http://lorempixel.com/440/320/city/",
        "http://lorempixel.com/440/320/city/",
        "http://lorempixel.com/440/320/city/"
      ]
    },
    {
      "id": 161,
      "name": "Pawlicki, Paluch and Musiał",
      "place": "Bodzentyn",
      "district": "Pomorskie",
      "starts": 2,
      "description": "Vel incidunt cumque.",
      "wifi": false,
      "tv": true,
      "food": false,
      "paypas": false,
      "swimming": false,
      "airport": true,
      "parking": false,
      "price": 44,
      "oldprice": 63,
      "score": 5.2,
      "opinion_count": 117,
      "latitude": "-53.355270984746",
      "longitude": "58.592218192102",
      "created_at": "2015-08-31T12:59:46.000+02:00",
      "updated_at": "2015-08-31T12:59:46.000+02:00",
      "image": "http://lorempixel.com/440/320/city/",
      "gallery": [
        "http://lorempixel.com/440/320/city/",
        "http://lorempixel.com/440/320/city/",
        "http://lorempixel.com/440/320/city/"
      ]
    },
    {
      "id": 164,
      "name": "Kuchta, Kogut and Kuciński",
      "place": "Ożarów",
      "district": "Wielkopolskie",
      "starts": 5,
      "description": "Laboriosam tenetur quis esse quibusdam.",
      "wifi": false,
      "tv": false,
      "food": false,
      "paypas": true,
      "swimming": true,
      "airport": true,
      "parking": true,
      "price": 24,
      "oldprice": 85,
      "score": 9.1,
      "opinion_count": 28,
      "latitude": "15.867637667533",
      "longitude": "-16.505565636855",
      "created_at": "2015-08-31T12:59:46.000+02:00",
      "updated_at": "2015-08-31T12:59:46.000+02:00",
      "image": "http://lorempixel.com/440/320/city/",
      "gallery": [
        "http://lorempixel.com/440/320/city/",
        "http://lorempixel.com/440/320/city/",
        "http://lorempixel.com/440/320/city/"
      ]
    },
    {
      "id": 167,
      "name": "Wójcik Inc",
      "place": "Zagórz",
      "district": "Śląskie",
      "starts": 5,
      "description": "Perferendis libero sit voluptates cumque fugiat.",
      "wifi": false,
      "tv": false,
      "food": false,
      "paypas": false,
      "swimming": false,
      "airport": true,
      "parking": true,
      "price": 55,
      "oldprice": 40,
      "score": 7.4,
      "opinion_count": 62,
      "latitude": "9.518811693545",
      "longitude": "-60.904342347747",
      "created_at": "2015-08-31T12:59:46.000+02:00",
      "updated_at": "2015-08-31T12:59:46.000+02:00",
      "image": "http://lorempixel.com/440/320/city/",
      "gallery": [
        "http://lorempixel.com/440/320/city/",
        "http://lorempixel.com/440/320/city/",
        "http://lorempixel.com/440/320/city/"
      ]
    },
    {
      "id": 170,
      "name": "Jankowiak-Nowiński",
      "place": "Krynki",
      "district": "Śląskie",
      "starts": 3,
      "description": "Atque qui eos quisquam cum.",
      "wifi": false,
      "tv": false,
      "food": false,
      "paypas": false,
      "swimming": true,
      "airport": true,
      "parking": false,
      "price": 95,
      "oldprice": 95,
      "score": 8.7,
      "opinion_count": 81,
      "latitude": "61.146830679961",
      "longitude": "41.128091941838",
      "created_at": "2015-08-31T12:59:46.000+02:00",
      "updated_at": "2015-08-31T12:59:46.000+02:00",
      "image": "http://lorempixel.com/440/320/city/",
      "gallery": [
        "http://lorempixel.com/440/320/city/",
        "http://lorempixel.com/440/320/city/",
        "http://lorempixel.com/440/320/city/"
      ]
    },
    {
      "id": 173,
      "name": "Lisiecki, Kmiecik and Piasecki",
      "place": "Łasin",
      "district": "Lubuskie",
      "starts": 4,
      "description": "Sunt aut occaecati delectus.",
      "wifi": false,
      "tv": true,
      "food": false,
      "paypas": true,
      "swimming": false,
      "airport": true,
      "parking": false,
      "price": 78,
      "oldprice": 66,
      "score": 1.6,
      "opinion_count": 89,
      "latitude": "22.318694461685",
      "longitude": "45.320443218947",
      "created_at": "2015-08-31T12:59:47.000+02:00",
      "updated_at": "2015-08-31T12:59:47.000+02:00",
      "image": "http://lorempixel.com/440/320/city/",
      "gallery": [
        "http://lorempixel.com/440/320/city/",
        "http://lorempixel.com/440/320/city/",
        "http://lorempixel.com/440/320/city/"
      ]
    },
    {
      "id": 176,
      "name": "Kapusta, Urbańczyk and Dziedzic",
      "place": "Nowy Tomyśl",
      "district": "Podkarpackie",
      "starts": 2,
      "description": "Sapiente dolorem repellendus neque ea omnis.",
      "wifi": true,
      "tv": false,
      "food": true,
      "paypas": true,
      "swimming": true,
      "airport": false,
      "parking": false,
      "price": 7,
      "oldprice": 58,
      "score": 6.5,
      "opinion_count": 31,
      "latitude": "32.81279510281",
      "longitude": "27.804289462823",
      "created_at": "2015-08-31T12:59:47.000+02:00",
      "updated_at": "2015-08-31T12:59:47.000+02:00",
      "image": "http://lorempixel.com/440/320/city/",
      "gallery": [
        "http://lorempixel.com/440/320/city/",
        "http://lorempixel.com/440/320/city/",
        "http://lorempixel.com/440/320/city/"
      ]
    },
    {
      "id": 179,
      "name": "Paluch, Kędziora and Adamczyk",
      "place": "Tykocin",
      "district": "Lubelskie",
      "starts": 3,
      "description": "Consequatur et amet.",
      "wifi": true,
      "tv": true,
      "food": false,
      "paypas": true,
      "swimming": false,
      "airport": false,
      "parking": false,
      "price": 59,
      "oldprice": 86,
      "score": 4.3,
      "opinion_count": 31,
      "latitude": "-21.124880900829",
      "longitude": "138.716754919453",
      "created_at": "2015-08-31T12:59:47.000+02:00",
      "updated_at": "2015-08-31T12:59:47.000+02:00",
      "image": "http://lorempixel.com/440/320/city/",
      "gallery": [
        "http://lorempixel.com/440/320/city/",
        "http://lorempixel.com/440/320/city/",
        "http://lorempixel.com/440/320/city/"
      ]
    },
    {
      "id": 182,
      "name": "Budzyński LLC",
      "place": "Łuków",
      "district": "Warmińsko-mazurskie",
      "starts": 3,
      "description": "Maxime qui dolores repellendus sed qui non.",
      "wifi": true,
      "tv": true,
      "food": true,
      "paypas": false,
      "swimming": true,
      "airport": false,
      "parking": true,
      "price": 79,
      "oldprice": 48,
      "score": 3.1,
      "opinion_count": 145,
      "latitude": "-46.915648345862",
      "longitude": "-41.539779911803",
      "created_at": "2015-08-31T12:59:47.000+02:00",
      "updated_at": "2015-08-31T12:59:47.000+02:00",
      "image": "http://lorempixel.com/440/320/city/",
      "gallery": [
        "http://lorempixel.com/440/320/city/",
        "http://lorempixel.com/440/320/city/",
        "http://lorempixel.com/440/320/city/"
      ]
    },
    {
      "id": 185,
      "name": "Kopczyński LLC",
      "place": "Ryglice",
      "district": "Śląskie",
      "starts": 1,
      "description": "A accusamus quam distinctio eveniet.",
      "wifi": false,
      "tv": false,
      "food": true,
      "paypas": false,
      "swimming": true,
      "airport": false,
      "parking": true,
      "price": 3,
      "oldprice": 66,
      "score": 6.6,
      "opinion_count": 42,
      "latitude": "-43.020458100269",
      "longitude": "-99.30393876804",
      "created_at": "2015-08-31T12:59:47.000+02:00",
      "updated_at": "2015-08-31T12:59:47.000+02:00",
      "image": "http://lorempixel.com/440/320/city/",
      "gallery": [
        "http://lorempixel.com/440/320/city/",
        "http://lorempixel.com/440/320/city/",
        "http://lorempixel.com/440/320/city/"
      ]
    },
    {
      "id": 188,
      "name": "Grzesik-Romanowski",
      "place": "Jedlicze",
      "district": "Kujawsko-pomorskie",
      "starts": 5,
      "description": "Eligendi voluptate eos aliquam.",
      "wifi": true,
      "tv": false,
      "food": true,
      "paypas": false,
      "swimming": true,
      "airport": true,
      "parking": true,
      "price": 73,
      "oldprice": 98,
      "score": 5.9,
      "opinion_count": 61,
      "latitude": "-48.255469239552",
      "longitude": "54.915052123171",
      "created_at": "2015-08-31T12:59:47.000+02:00",
      "updated_at": "2015-08-31T12:59:47.000+02:00",
      "image": "http://lorempixel.com/440/320/city/",
      "gallery": [
        "http://lorempixel.com/440/320/city/",
        "http://lorempixel.com/440/320/city/",
        "http://lorempixel.com/440/320/city/"
      ]
    },
    {
      "id": 191,
      "name": "Włodarski and Sons",
      "place": "Skwierzyna",
      "district": "Świętokrzyskie",
      "starts": 5,
      "description": "Ea et earum dignissimos saepe.",
      "wifi": true,
      "tv": true,
      "food": false,
      "paypas": false,
      "swimming": false,
      "airport": false,
      "parking": false,
      "price": 0,
      "oldprice": 52,
      "score": 3.7,
      "opinion_count": 64,
      "latitude": "-52.98241099011",
      "longitude": "-107.79952445332",
      "created_at": "2015-08-31T12:59:47.000+02:00",
      "updated_at": "2015-08-31T12:59:47.000+02:00",
      "image": "http://lorempixel.com/440/320/city/",
      "gallery": [
        "http://lorempixel.com/440/320/city/",
        "http://lorempixel.com/440/320/city/",
        "http://lorempixel.com/440/320/city/"
      ]
    },
    {
      "id": 194,
      "name": "Mazurkiewicz, Broda and Walkowiak",
      "place": "Świebodzin",
      "district": "Wielkopolskie",
      "starts": 3,
      "description": "Rem illo ut qui sint sed.",
      "wifi": false,
      "tv": false,
      "food": true,
      "paypas": false,
      "swimming": true,
      "airport": false,
      "parking": false,
      "price": 6,
      "oldprice": 36,
      "score": 5.0,
      "opinion_count": 110,
      "latitude": "46.195196602996",
      "longitude": "2.481150498032",
      "created_at": "2015-08-31T12:59:47.000+02:00",
      "updated_at": "2015-08-31T12:59:47.000+02:00",
      "image": "http://lorempixel.com/440/320/city/",
      "gallery": [
        "http://lorempixel.com/440/320/city/",
        "http://lorempixel.com/440/320/city/",
        "http://lorempixel.com/440/320/city/"
      ]
    },
    {
      "id": 197,
      "name": "Rutkowski, Sroka and Misiak",
      "place": "Lwówek",
      "district": "Małopolskie",
      "starts": 4,
      "description": "Sed error dolorum voluptatibus dignissimos.",
      "wifi": false,
      "tv": true,
      "food": true,
      "paypas": false,
      "swimming": false,
      "airport": true,
      "parking": false,
      "price": 81,
      "oldprice": 14,
      "score": 8.8,
      "opinion_count": 72,
      "latitude": "-83.725896349231",
      "longitude": "148.818243989303",
      "created_at": "2015-08-31T12:59:47.000+02:00",
      "updated_at": "2015-08-31T12:59:47.000+02:00",
      "image": "http://lorempixel.com/440/320/city/",
      "gallery": [
        "http://lorempixel.com/440/320/city/",
        "http://lorempixel.com/440/320/city/",
        "http://lorempixel.com/440/320/city/"
      ]
    },
    {
      "id": 200,
      "name": "Markiewicz-Krupa",
      "place": "Sochaczew",
      "district": "Świętokrzyskie",
      "starts": 3,
      "description": "Consequatur necessitatibus quam dolore.",
      "wifi": false,
      "tv": true,
      "food": false,
      "paypas": true,
      "swimming": false,
      "airport": true,
      "parking": true,
      "price": 32,
      "oldprice": 30,
      "score": 9.8,
      "opinion_count": 123,
      "latitude": "-17.989627587335",
      "longitude": "86.656024761893",
      "created_at": "2015-08-31T12:59:47.000+02:00",
      "updated_at": "2015-08-31T12:59:47.000+02:00",
      "image": "http://lorempixel.com/440/320/city/",
      "gallery": [
        "http://lorempixel.com/440/320/city/",
        "http://lorempixel.com/440/320/city/",
        "http://lorempixel.com/440/320/city/"
      ]
    },
    {
      "id": 203,
      "name": "Augustyniak-Woźniak",
      "place": "Kraśnik",
      "district": "Zachodniopomorskie",
      "starts": 4,
      "description": "Vel distinctio aut.",
      "wifi": false,
      "tv": false,
      "food": false,
      "paypas": true,
      "swimming": false,
      "airport": false,
      "parking": true,
      "price": 61,
      "oldprice": 39,
      "score": 8.7,
      "opinion_count": 92,
      "latitude": "28.513510162673",
      "longitude": "-151.260285601746",
      "created_at": "2015-08-31T12:59:47.000+02:00",
      "updated_at": "2015-08-31T12:59:47.000+02:00",
      "image": "http://lorempixel.com/440/320/city/",
      "gallery": [
        "http://lorempixel.com/440/320/city/",
        "http://lorempixel.com/440/320/city/",
        "http://lorempixel.com/440/320/city/"
      ]
    },
    {
      "id": 206,
      "name": "Piotrowicz, Ratajczak and Noga",
      "place": "Tomaszów Mazowiecki",
      "district": "Mazowieckie",
      "starts": 4,
      "description": "Expedita omnis voluptatem at molestiae sed.",
      "wifi": true,
      "tv": false,
      "food": true,
      "paypas": true,
      "swimming": false,
      "airport": true,
      "parking": true,
      "price": 1,
      "oldprice": 63,
      "score": 3.8,
      "opinion_count": 16,
      "latitude": "56.08517387309",
      "longitude": "136.837305800671",
      "created_at": "2015-08-31T12:59:47.000+02:00",
      "updated_at": "2015-08-31T12:59:47.000+02:00",
      "image": "http://lorempixel.com/440/320/city/",
      "gallery": [
        "http://lorempixel.com/440/320/city/",
        "http://lorempixel.com/440/320/city/",
        "http://lorempixel.com/440/320/city/"
      ]
    },
    {
      "id": 209,
      "name": "Kuciński-Pietrzyk",
      "place": "Lewin Brzeski",
      "district": "Wielkopolskie",
      "starts": 5,
      "description": "Adipisci nesciunt sapiente beatae est.",
      "wifi": false,
      "tv": true,
      "food": true,
      "paypas": false,
      "swimming": true,
      "airport": true,
      "parking": true,
      "price": 23,
      "oldprice": 1,
      "score": 4.3,
      "opinion_count": 116,
      "latitude": "81.523825626298",
      "longitude": "-99.669561070162",
      "created_at": "2015-08-31T12:59:47.000+02:00",
      "updated_at": "2015-08-31T12:59:47.000+02:00",
      "image": "http://lorempixel.com/440/320/city/",
      "gallery": [
        "http://lorempixel.com/440/320/city/",
        "http://lorempixel.com/440/320/city/",
        "http://lorempixel.com/440/320/city/"
      ]
    },
    {
      "id": 212,
      "name": "Kwiecień-Stolarczyk",
      "place": "Przemków",
      "district": "Łódzkie",
      "starts": 3,
      "description": "Quis deleniti placeat iure.",
      "wifi": true,
      "tv": false,
      "food": true,
      "paypas": true,
      "swimming": false,
      "airport": true,
      "parking": false,
      "price": 90,
      "oldprice": 51,
      "score": 8.5,
      "opinion_count": 85,
      "latitude": "56.100569630092",
      "longitude": "-57.210551968867",
      "created_at": "2015-08-31T12:59:47.000+02:00",
      "updated_at": "2015-08-31T12:59:47.000+02:00",
      "image": "http://lorempixel.com/440/320/city/",
      "gallery": [
        "http://lorempixel.com/440/320/city/",
        "http://lorempixel.com/440/320/city/",
        "http://lorempixel.com/440/320/city/"
      ]
    },
    {
      "id": 215,
      "name": "Kisiel Inc",
      "place": "Krapkowice",
      "district": "Podkarpackie",
      "starts": 4,
      "description": "Nostrum rem sint.",
      "wifi": false,
      "tv": true,
      "food": false,
      "paypas": true,
      "swimming": true,
      "airport": false,
      "parking": true,
      "price": 26,
      "oldprice": 89,
      "score": 1.6,
      "opinion_count": 101,
      "latitude": "36.687067247684",
      "longitude": "-35.719087988569",
      "created_at": "2015-08-31T12:59:47.000+02:00",
      "updated_at": "2015-08-31T12:59:47.000+02:00",
      "image": "http://lorempixel.com/440/320/city/",
      "gallery": [
        "http://lorempixel.com/440/320/city/",
        "http://lorempixel.com/440/320/city/",
        "http://lorempixel.com/440/320/city/"
      ]
    },
    {
      "id": 218,
      "name": "Orłowski LLC",
      "place": "Żory",
      "district": "Mazowieckie",
      "starts": 3,
      "description": "Corporis illum quisquam molestiae ut.",
      "wifi": true,
      "tv": true,
      "food": false,
      "paypas": true,
      "swimming": false,
      "airport": false,
      "parking": true,
      "price": 36,
      "oldprice": 81,
      "score": 8.6,
      "opinion_count": 97,
      "latitude": "28.845928920841",
      "longitude": "-113.920527741844",
      "created_at": "2015-08-31T12:59:47.000+02:00",
      "updated_at": "2015-08-31T12:59:47.000+02:00",
      "image": "http://lorempixel.com/440/320/city/",
      "gallery": [
        "http://lorempixel.com/440/320/city/",
        "http://lorempixel.com/440/320/city/",
        "http://lorempixel.com/440/320/city/"
      ]
    },
    {
      "id": 221,
      "name": "Gałązka-Dudziński",
      "place": "Sieniawa",
      "district": "Zachodniopomorskie",
      "starts": 4,
      "description": "Quia quaerat saepe.",
      "wifi": false,
      "tv": false,
      "food": false,
      "paypas": true,
      "swimming": false,
      "airport": true,
      "parking": true,
      "price": 71,
      "oldprice": 68,
      "score": 5.1,
      "opinion_count": 94,
      "latitude": "-65.397609174181",
      "longitude": "123.605334263594",
      "created_at": "2015-08-31T12:59:47.000+02:00",
      "updated_at": "2015-08-31T12:59:47.000+02:00",
      "image": "http://lorempixel.com/440/320/city/",
      "gallery": [
        "http://lorempixel.com/440/320/city/",
        "http://lorempixel.com/440/320/city/",
        "http://lorempixel.com/440/320/city/"
      ]
    },
    {
      "id": 224,
      "name": "Kogut LLC",
      "place": "Nowy Dwór Gdański",
      "district": "Warmińsko-mazurskie",
      "starts": 2,
      "description": "Quod veniam provident a eum natus.",
      "wifi": false,
      "tv": true,
      "food": true,
      "paypas": false,
      "swimming": true,
      "airport": false,
      "parking": true,
      "price": 69,
      "oldprice": 16,
      "score": 1.2,
      "opinion_count": 143,
      "latitude": "-36.016528931702",
      "longitude": "8.645600249843",
      "created_at": "2015-08-31T12:59:47.000+02:00",
      "updated_at": "2015-08-31T12:59:47.000+02:00",
      "image": "http://lorempixel.com/440/320/city/",
      "gallery": [
        "http://lorempixel.com/440/320/city/",
        "http://lorempixel.com/440/320/city/",
        "http://lorempixel.com/440/320/city/"
      ]
    }
  ],
  "page": 3,
  "total_pages": 4,
  "total_count": 100
}